{
	"info": {
		"_postman_id": "2121cb0e-e98d-47cc-975f-fd4f0e6124a4",
		"name": "API",
		"schema": "https://schema.getpostman.com/json/collection/v2.1.0/collection.json"
	},
	"item": [
		{
			"name": "Admin",
			"item": [
				{
					"name": "Cadastrar",
					"request": {
						"method": "POST",
						"header": [
							{
								"key": "",
								"type": "text",
								"value": ""
							}
						],
						"body": {
							"mode": "raw",
							"raw": "{\r\n  \"nome\": \"Teste da Silva\",\r\n  \"email\": \"teste@silva.com\",\r\n  \"senha\": \"Str!ng@0P1@2SS3\",\r\n  \"confirmacao\": \"Str!ng@0P1@2SS3\"\r\n}",
							"options": {
								"raw": {
									"language": "json"
								}
							}
						},
						"url": {
							"raw": "{{https_url}}/Admin",
							"host": [
								"{{https_url}}"
							],
							"path": [
								"Admin"
							]
						}
					},
					"response": []
				},
				{
					"name": "Editar",
					"request": {
						"method": "PUT",
						"header": [
							{
								"key": "",
								"type": "text",
								"value": ""
							}
						],
						"body": {
							"mode": "raw",
							"raw": "{\r\n  \"nome\": \"Teste da Silva\",\r\n  \"email\": \"teste@silva.com\",\r\n  \"senhaAtual\": \"Str!ng@0P1@2SS\",\r\n  \"senhaNova\": \"Str!ng@0P1@2SS3\"\r\n}",
							"options": {
								"raw": {
									"language": "json"
								}
							}
						},
						"url": {
							"raw": "{{https_url}}/Admin",
							"host": [
								"{{https_url}}"
							],
							"path": [
								"Admin"
							]
						}
					},
					"response": []
				},
				{
					"name": "Excluir",
					"request": {
						"method": "DELETE",
						"header": [
							{
								"key": "",
								"type": "text",
								"value": ""
							}
						],
						"body": {
							"mode": "raw",
							"raw": "{\r\n  \"senha\": \"string\"\r\n}",
							"options": {
								"raw": {
									"language": "json"
								}
							}
						},
						"url": {
							"raw": "{{https_url}}/Admin",
							"host": [
								"{{https_url}}"
							],
							"path": [
								"Admin"
							]
						}
					},
					"response": []
				},
				{
					"name": "Listar Usuarios Ativos",
					"request": {
						"method": "GET",
						"header": [
							{
								"key": "",
								"value": "",
								"type": "text"
							}
						],
						"url": {
							"raw": "{{https_url}}/Admin/Usuarios",
							"host": [
								"{{https_url}}"
							],
							"path": [
								"Admin",
								"Usuarios"
							],
							"query": [
								{
									"key": "TamanhoPagina",
									"value": "5",
									"disabled": true
								},
								{
									"key": "NumeroPagina",
									"value": "1",
									"disabled": true
								}
							]
						}
					},
					"response": []
				}
			],
			"event": [
				{
					"listen": "prerequest",
					"script": {
						"type": "text/javascript",
						"exec": [
							""
						]
					}
				},
				{
					"listen": "test",
					"script": {
						"type": "text/javascript",
						"exec": [
							""
						]
					}
				}
			]
		},
		{
			"name": "Filmes",
			"item": [
				{
					"name": "Listar Filmes",
					"request": {
						"method": "GET",
						"header": [
							{
								"key": "",
								"value": "",
								"type": "text"
							}
						],
						"url": {
							"raw": "{{https_url}}/Filmes?NumeroPagina=2",
							"host": [
								"{{https_url}}"
							],
							"path": [
								"Filmes"
							],
							"query": [
								{
									"key": "NumeroPagina",
									"value": "2"
								},
								{
									"key": "TamanhoPagina",
									"value": "5",
									"disabled": true
								},
								{
									"key": "Atores",
									"value": "",
									"disabled": true
								},
								{
									"key": "Atores",
									"value": "",
									"disabled": true
								},
								{
									"key": "Diretores",
									"value": "",
									"disabled": true
								},
								{
									"key": "Diretores",
									"value": null,
									"disabled": true
								},
								{
									"key": "Generos",
									"value": null,
									"disabled": true
								},
								{
									"key": "NomeFilme",
									"value": null,
									"disabled": true
								}
							]
						}
					},
					"response": []
				},
				{
					"name": "Consultar",
					"request": {
						"method": "GET",
						"header": [
							{
								"key": "",
								"type": "text",
								"value": ""
							}
						],
						"url": {
							"raw": "{{https_url}}/Filmes/f1736e0d-56ec-4d9e-b07f-4c0973df0890",
							"host": [
								"{{https_url}}"
							],
							"path": [
								"Filmes",
								"f1736e0d-56ec-4d9e-b07f-4c0973df0890"
							]
						}
					},
					"response": []
				},
				{
					"name": "Cadastrar",
					"request": {
						"method": "POST",
						"header": [
							{
								"key": "",
								"type": "text",
								"value": ""
							}
						],
						"body": {
							"mode": "raw",
							"raw": "{\r\n  \"nome\": \"Pantera Negra\",\r\n  \"nomeOriginal\": \"Black Panther\",\r\n  \"ano\": 2018,\r\n  \"sinopse\": \"T'Challa, herdeiro do reino oculto, mas avançado de Wakanda, deve dar um passo adiante para conduzir seu povo a um novo futuro e deve enfrentar um adversário do passado de seu país.\",\r\n  \"atores\": [\"Chadwick Boseman\", \"Michael B. Jordan\", \"Lupita Nyong'o\"],\r\n  \"diretores\": [\"Ryan Coogler\"],\r\n  \"generos\": [\"Ação\", \"Aventura\", \"D3F7FF92-3467-497A-A569-B646593FAFFE\"]\r\n}",
							"options": {
								"raw": {
									"language": "json"
								}
							}
						},
						"url": {
							"raw": "{{https_url}}/Filmes",
							"host": [
								"{{https_url}}"
							],
							"path": [
								"Filmes"
							]
						}
					},
					"response": []
				},
				{
					"name": "Votar",
					"request": {
						"method": "POST",
						"header": [],
						"body": {
							"mode": "raw",
							"raw": "{\r\n  \"idFilme\": \"2bad2a73-7b87-42d1-8b57-a7c0057d99a8\",\r\n  \"nota\": 2\r\n}",
							"options": {
								"raw": {
									"language": "json"
								}
							}
						},
						"url": {
							"raw": "{{https_url}}/Filmes/Votar",
							"host": [
								"{{https_url}}"
							],
							"path": [
								"Filmes",
								"Votar"
							]
						}
					},
					"response": []
				},
				{
					"name": "Listar Votos",
					"request": {
						"method": "GET",
						"header": [
							{
								"key": "",
								"type": "text",
								"value": ""
							}
						],
						"url": {
							"raw": "{{https_url}}/Filmes/Votos",
							"host": [
								"{{https_url}}"
							],
							"path": [
								"Filmes",
								"Votos"
							],
							"query": [
								{
									"key": "TamanhoPagina",
									"value": "5",
									"disabled": true
								},
								{
									"key": "Atores",
									"value": "",
									"disabled": true
								},
								{
									"key": "Atores",
									"value": "",
									"disabled": true
								},
								{
									"key": "Diretores",
									"value": "",
									"disabled": true
								},
								{
									"key": "Diretores",
									"value": null,
									"disabled": true
								},
								{
									"key": "Generos",
									"value": null,
									"disabled": true
								},
								{
									"key": "NomeFilme",
									"value": null,
									"disabled": true
								}
							]
						}
					},
					"response": []
				}
			]
		},
		{
			"name": "Token",
			"item": [
				{
					"name": "Obter",
					"request": {
						"auth": {
							"type": "noauth"
						},
						"method": "POST",
						"header": [
							{
								"key": "",
								"type": "text",
								"value": "",
								"disabled": true
							}
						],
						"body": {
							"mode": "raw",
							"raw": "    {\r\n        \"email\": \"rafael.av@gmail.com\",\r\n        \"senha\": \"S3nh@123456!\"\r\n    }",
							"options": {
								"raw": {
									"language": "json"
								}
							}
						},
						"url": {
							"raw": "{{https_url}}/Token",
							"host": [
								"{{https_url}}"
							],
							"path": [
								"Token"
							]
						}
					},
					"response": []
				}
			]
		},
		{
			"name": "Usuario",
			"item": [
				{
					"name": "Cadastrar",
					"request": {
						"method": "POST",
						"header": [
							{
								"key": "",
								"value": "",
								"type": "text"
							}
						],
						"body": {
							"mode": "raw",
							"raw": "{\r\n  \"nome\": \"Teste da Silva\",\r\n  \"email\": \"teste@silva.com\",\r\n  \"senha\": \"Str!ng@0P1@2SS3\",\r\n  \"confirmacao\": \"Str!ng@0P1@2SS3\"\r\n}",
							"options": {
								"raw": {
									"language": "json"
								}
							}
						},
						"url": {
							"raw": "{{https_url}}/Usuario",
							"host": [
								"{{https_url}}"
							],
							"path": [
								"Usuario"
							]
						}
					},
					"response": []
				},
				{
					"name": "Editar",
					"request": {
						"method": "PUT",
						"header": [
							{
								"key": "",
								"type": "text",
								"value": ""
							}
						],
						"body": {
							"mode": "raw",
							"raw": "{\r\n  \"nome\": \"Blah blah blah\",\r\n  \"email\": \"teste@silva.com\",\r\n  \"senhaAtual\": \"Str!ng@0P1@2SS3\",\r\n  \"senhaNova\": \"\"\r\n}",
							"options": {
								"raw": {
									"language": "json"
								}
							}
						},
						"url": {
							"raw": "{{https_url}}/Usuario",
							"host": [
								"{{https_url}}"
							],
							"path": [
								"Usuario"
							]
						}
					},
					"response": []
				},
				{
					"name": "Excluir",
					"request": {
						"method": "DELETE",
						"header": [
							{
								"key": "",
								"type": "text",
								"value": ""
							}
						],
						"body": {
							"mode": "raw",
							"raw": "{\r\n  \"senha\": \"Str!ng@0P1@2SS3\"\r\n}",
							"options": {
								"raw": {
									"language": "json"
								}
							}
						},
						"url": {
							"raw": "{{https_url}}/Usuario",
							"host": [
								"{{https_url}}"
							],
							"path": [
								"Usuario"
							]
						}
					},
					"response": []
				}
			],
			"event": [
				{
					"listen": "prerequest",
					"script": {
						"type": "text/javascript",
						"exec": [
							""
						]
					}
				},
				{
					"listen": "test",
					"script": {
						"type": "text/javascript",
						"exec": [
							""
						]
					}
				}
			]
		}
	],
	"auth": {
		"type": "bearer",
		"bearer": [
			{
				"key": "token",
				"value": "{{currentAccessToken}}",
				"type": "string"
			}
		]
	},
	"event": [
		{
			"listen": "prerequest",
			"script": {
				"type": "text/javascript",
				"exec": [
					"/**/",
					"function stringifyRequest(object) {",
					"    let resultString = '';",
					"    for (var property in object) {",
					"        if (object.hasOwnProperty(property)) {",
					"            let tempString = `${property}=${object[property]}`;",
					"            resultString = resultString ? `${resultString}&${tempString}` : tempString;",
					"        }",
					"    }",
					"    return resultString",
					"}",
					"",
					"const echoPostRequest = {",
					"  url: 'https://localhost:5001/api/Token',",
					"  method: 'POST',",
					"  header: 'Content-Type:application/json',",
					"  body: {",
					"    mode: 'application/json',",
					"    //raw: JSON.stringify( { \"email\": \"rafael.av@gmail.com\",  \"senha\": \"S3nh@123456!\" })",
					"    //raw: JSON.stringify( { \"email\": \"teste@silva.com\",  \"senha\": \"Str!ng@0P1@2SS3\" })",
					"    //raw: JSON.stringify( { \"email\": \"teste1@silva.com\",  \"senha\": \"Str!ng@0P1@2SS3\" })",
					"    raw: JSON.stringify( { \"email\": \"teste2@silva.com\",  \"senha\": \"Str!ng@0P1@2SS3\" })",
					"    //raw: JSON.stringify( { \"email\": \"teste3@silva.com\",  \"senha\": \"Str!ng@0P1@2SS3\" })",
					"    //raw: JSON.stringify( { \"email\": \"teste4@silva.com\",  \"senha\": \"Str!ng@0P1@2SS3\" })",
					"  }",
					"};",
					"",
					"var getToken = true;",
					"",
					"if (!pm.environment.get('accessTokenExpiry') || !pm.environment.get('currentAccessToken')) {",
					"    console.log('Token or expiry date are missing')",
					"} else if (pm.environment.get('accessTokenExpiry') <= (new Date()).getTime()) {",
					"    console.log('Token is expired')",
					"} else {",
					"    getToken = false;",
					"    console.log('Token and expiry date are all good');",
					"}",
					"",
					"if (getToken === true) {",
					"    pm.sendRequest(echoPostRequest, function (err, res) {",
					"    console.log(err ? err : res.json());",
					"        if (err === null) {",
					"            console.log('Saving the token and expiry date')",
					"            var responseJson = res.json();",
					"            console.log(responseJson)",
					"            pm.environment.set('currentAccessToken', responseJson.dados.token)",
					"            console.log(pm.environment.get('currentAccessToken'))",
					"            var expiryDate = new Date();",
					"            expiryDate.setSeconds(expiryDate.getSeconds() + responseJson.dados.validade);",
					"            pm.environment.set('accessTokenExpiry', expiryDate.getTime());",
					"        }",
					"    });",
					"}",
					"/**/"
				]
			}
		},
		{
			"listen": "test",
			"script": {
				"type": "text/javascript",
				"exec": [
					""
				]
			}
		}
	],
	"variable": [
		{
			"key": "https_url",
			"value": "https://localhost:5001/api"
		},
		{
			"key": "http_url",
			"value": "http://localhost:5000/api"
		},
		{
			"key": "accessTokenExpiry",
			"value": ""
		},
		{
			"key": "currentAccessToken",
			"value": ""
		}
	]
}